{
  "nl": {
    "already-account": "Al een account?",
    "intro": "Registreer jezelf in 2 minuten. Tof dat je meedoet!",
    "tos": {
      "prefix": "Ja, ik accepteer de ",
      "seperator": " en het ",
      "terms": "algemene voorwaarden",
      "privacy": "privacy statement"
    },
    "success": {
      "description": "We hebben een activatielink naar je e-mailadres gestuurd. Klik op de link in jouw e-mail om te kunnen beginnen.",
      "header": "Bijna klaar!"
    }
  }
}
