<svg xmlns="http://www.w3.org/2000/svg">
  <symbol id="root" viewBox="0 0 24 24">
    <path fill="none" d="M0 0h24v24H0z"/>
    <path fill="#FFF" d="M11.969 18.414v-17h-7.2c-1.988 0-3.6 1.61-3.6 3.6v9.399a4 4 0 0 0 3.999 4.002h6.801z"/>
    <path fill="#FAFAFA" d="M11.969 1.414v17h6.8a4 4 0 0 0 4-4.002V5.013a3.6 3.6 0 0 0-3.6-3.6h-7.2z"/>
    <path fill="#EEE" d="M5.317 5.613h6.7v1.064h-6.7V5.613zM5.317 8.38h6.7v1.064h-6.7V8.38zM5.317 11.148h6.7v1.065h-6.7v-1.065z"/>
    <path fill="#E0E0E0" d="M11.982 5.613h6.7v1.064h-6.7V5.613zM11.982 8.38h6.7v1.064h-6.7V8.38zM11.982 11.148h6.7v1.065h-6.7v-1.065z"/>
    <path fill="#71DAE3" d="M23.311 20.473a3.997 3.997 0 0 1-3.527 2.113H4.249A3.998 3.998 0 0 1 .25 18.588V9.552c0-.703.182-1.365.501-1.939l22.56 12.86z"/>
    <path fill="#57C0C9" d="M.689 20.473a3.998 3.998 0 0 0 3.528 2.113h15.535a3.997 3.997 0 0 0 3.998-3.998V9.552c0-.703-.182-1.365-.5-1.939L.689 20.473z"/>
  </symbol>
</svg>
