{
  "nl": {
    "form-tip": "Voeg hier de eerste bijlage toe: werkbeschrijving, formats of andere bestanden die nodig zijn om de taken uit te voeren. Je kunt linken naar Onedrive, Google drive of docs, Slack, Dropbox en meer."
  }
}
